…
# select data and rename the col_name
> install.packages("dplyr")
> library(dplyr)
> babynames <- babynames %>%
+     select(year = Year, name = Name, number = Count)
> babynames
# A tibble: 1,825,433 × 3
    year name      number
   <dbl> <chr>      <dbl>
 1  1880 Mary        7065
 2  1880 Anna        2604
 3  1880 Emma        2003
 4  1880 Elizabeth   1939
 5  1880 Minnie      1746
 6  1880 Margaret    1578
 7  1880 Ida         1472
 8  1880 Alice       1414
 9  1880 Bertha      1320
10  1880 Sarah       1288
# … with 1,825,423 more rows

# select the name "Amy"
> babynames_selected <- babynames %>%
+     filter(name == "Amy")
> babynames_selected
# A tibble: 196 × 3
    year name  number
   <dbl> <chr>  <dbl>
 1  1880 Amy      167
 2  1881 Amy      145
 3  1882 Amy      196
 4  1883 Amy      209
 5  1884 Amy      205
 6  1885 Amy      240
 7  1886 Amy      226
 8  1887 Amy      251
 9  1888 Amy      236
10  1889 Amy      252
# … with 186 more rows

# plot
> library(ggplot2)
> ggplot(babynames_selected, aes(x = year, y = number)) +
+     geom_line()

# filter for multiple names
> babynames_multiple <- babynames %>%
+     filter(name %in% c("Amy", "Christopher"))

# When was each name most common?
> babynames %>%
+     group_by(name) %>%
+     top_n(1, number)
# A tibble: 115,640 × 3
# Groups:   name [93,889]
    year name     number
   <dbl> <chr>     <dbl>
 1  1880 Manerva      10
 2  1880 Neppie        7
 3  1880 Arch         61
 4  1880 Redden        6
 5  1881 Zilpah        9
 6  1881 Garfield    147
 7  1881 Ole          42
 8  1881 Chin         11
 9  1881 Roll          5
10  1882 Crete         8
# … with 115,630 more rows
```

## 4.2 Grouped mutates

```
> babynames %>%
+     group_by(year) %>%
+     summarise(year_total = sum(number))
# A tibble: 135 × 2
    year year_total
   <dbl>      <dbl>
 1  1880     201484
 2  1881     192699
 3  1882     221538
 4  1883     216950
 5  1884     243467
 6  1885     240855
 7  1886     255319
 8  1887     247396
 9  1888     299480
10  1889     288950
# … with 125 more rows

> babynames %>%
+     group_by(year) %>%
+     mutate(year_total = sum(number))
# A tibble: 1,825,433 × 4
# Groups:   year [135]
    year name      number year_total
   <dbl> <chr>      <dbl>      <dbl>
 1  1880 Mary        7065     201484
 2  1880 Anna        2604     201484
 3  1880 Emma        2003     201484
 4  1880 Elizabeth   1939     201484
 5  1880 Minnie      1746     201484
 6  1880 Margaret    1578     201484
 7  1880 Ida         1472     201484
 8  1880 Alice       1414     201484
 9  1880 Bertha      1320     201484
10  1880 Sarah       1288     201484
# … with 1,825,423 more rows

# ungroup()
> babynames %>%
+     group_by(year) %>%
+     mutate(year_total = sum(number)) %>%
+     ungroup()
# A tibble: 1,825,433 × 4
    year name      number year_total
   <dbl> <chr>      <dbl>      <dbl>
 1  1880 Mary        7065     201484
 2  1880 Anna        2604     201484
 3  1880 Emma        2003     201484
 4  1880 Elizabeth   1939     201484
 5  1880 Minnie      1746     201484
 6  1880 Margaret    1578     201484
 7  1880 Ida         1472     201484
 8  1880 Alice       1414     201484
 9  1880 Bertha      1320     201484
10  1880 Sarah       1288     201484
# … with 1,825,423 more rows

# add the fraction column
> babynames %>%
+     group_by(year) %>%
+     mutate(year_total = sum(number)) %>%
+     ungroup() %>%
+     mutate(fraction = number / year_total)
# A tibble: 1,825,433 × 5
    year name      number year_total fraction
   <dbl> <chr>      <dbl>      <dbl>    <dbl>
 1  1880 Mary        7065     201484  0.0351 
 2  1880 Anna        2604     201484  0.0129 
 3  1880 Emma        2003     201484  0.00994
 4  1880 Elizabeth   1939     201484  0.00962
 5  1880 Minnie      1746     201484  0.00867
 6  1880 Margaret    1578     201484  0.00783
 7  1880 Ida         1472     201484  0.00731
 8  1880 Alice       1414     201484  0.00702
 9  1880 Bertha      1320     201484  0.00655
10  1880 Sarah       1288     201484  0.00639
# … with 1,825,423 more rows
```
…
```
> babynames_fraction <- babynames %>%
+     group_by(year) %>%
+     mutate(year_total = sum(number)) %>%
+     ungroup() %>%
+     mutate(fraction = number / year_total)
> babynames_fraction %>%
+     filter(name == "Matthew") %>%
+     arrange(year) %>%
+     mutate(difference = fraction - lag(fraction))
# A tibble: 206 × 6
    year name    number year_total fraction  difference
   <dbl> <chr>    <dbl>      <dbl>    <dbl>       <dbl>
 1  1880 Matthew    113     201484 0.000561 NA         
 2  1881 Matthew     80     192699 0.000415 -0.000146  
 3  1882 Matthew    109     221538 0.000492  0.0000769 
 4  1883 Matthew     86     216950 0.000396 -0.0000956 
 5  1884 Matthew    117     243467 0.000481  0.0000842 
 6  1885 Matthew    111     240855 0.000461 -0.0000197 
 7  1886 Matthew    112     255319 0.000439 -0.0000222 
 8  1887 Matthew    108     247396 0.000437 -0.00000212
 9  1888 Matthew    114     299480 0.000381 -0.0000559 
10  1889 Matthew    118     288950 0.000408  0.0000277 
# … with 196 more rows

# biggest jump in popularity
> babynames_fraction %>%
+     filter(name == "Matthew") %>%
+     arrange(year) %>%
+     mutate(difference = fraction - lag(fraction)) %>%
+     arrange(desc(difference))
# A tibble: 206 × 6
    year name    number year_total fraction difference
   <dbl> <chr>    <dbl>      <dbl>    <dbl>      <dbl>
 1  1983 Matthew  50202    3461793   0.0145     0.0144
 2  1984 Matthew  49763    3486803   0.0143     0.0142
 3  1986 Matthew  46907    3554828   0.0132     0.0131
 4  1985 Matthew  47050    3567068   0.0132     0.0131
 5  1982 Matthew  46052    3506648   0.0131     0.0131
 6  1987 Matthew  46471    3603553   0.0129     0.0128
 7  1981 Matthew  43323    3458372   0.0125     0.0125
 8  1988 Matthew  45867    3692441   0.0124     0.0124
 9  1989 Matthew  45372    3843104   0.0118     0.0118
10  1990 Matthew  44794    3950252   0.0113     0.0113
# … with 196 more rows

# changes within every name
> babynames_fraction %>%
+     arrange(name, year) %>%
+     mutate(difference = fraction - lag(fraction)) %>%
+     group_by(name) %>%
+     arrange(desc(difference))
# A tibble: 1,825,433 × 6
# Groups:   name [93,889]
    year name    number year_total fraction difference
   <dbl> <chr>    <dbl>      <dbl>    <dbl>      <dbl>
 1  1880 John      9655     201484   0.0479     0.0477
 2  1880 William   9532     201484   0.0473     0.0472
 3  1881 John      8769     192699   0.0455     0.0454
 4  1881 William   8524     192699   0.0442     0.0441
 5  1882 John      9557     221538   0.0431     0.0430
 6  1882 William   9298     221538   0.0420     0.0418
 7  1883 John      8894     216950   0.0410     0.0408
 8  1891 Mary     11703     286678   0.0408     0.0407
 9  1889 Mary     11648     288950   0.0403     0.0401
10  1890 Mary     12078     301402   0.0401     0.0399
# … with 1,825,423 more rows
…
