…
## 2.2 Improving word count plots

* **Custom stop words**

```R
> install.packages("tidytext")
> library(tidytext)
> stop_words
# A tibble: 1,149 × 2
   word        lexicon
   <chr>       <chr>  
 1 a           SMART  
 2 a's         SMART  
 3 able        SMART  
 4 about       SMART  
 5 above       SMART  
 6 according   SMART  
 7 accordingly SMART  
 8 across      SMART  
 9 actually    SMART  
10 after       SMART  
# … with 1,139 more rows
```
…
* **Using bind_rows()**

```R
custom_stop_words <- tribble(
  ~word,     ~lexicon,
  "roomba",  "CUSTOM",
  "2",       "CUSTOM"
)

stop_words2 <- stop_words %>%
  bind_rows(custom_stop_words)

stop_words2

# A tibble: 1,151 × 2
   word        lexicon
   <chr>       <chr>  
 1 a           SMART  
 2 a's         SMART  
 3 able        SMART  
 4 about       SMART  
 5 above       SMART  
 6 according   SMART  
 7 accordingly SMART  
 8 across      SMART  
 9 actually    SMART  
10 after       SMART  
# … with 1,141 more rows
…
